[
    {
        "id": "1",
        "name": "division-1",
        "branch": "Investment Division 1",
        "branch_mm": "ရင်းနှီးမြှုုပ်နှံမှု ဌာနခွဲ ၁",
        "address": "11, Thitsar Street, Yankin Towship, Yangon",
        "address_mm": "နံပါတ် ၁၁၊ သစ္စာ လမ်း၊ ရန်ကင်းမြို့နယ်၊ ရန်ကုန်။",
        "phone": "01-658127",
        "phone_mm": "၀၁-၆၅၈၁၂၇"
    },
    {
        "id": "2",
        "name": "division-2",
        "branch": "Investment Division 2",
        "branch_mm": "ရင်းနှီးမြှုုပ်နှံမှု ဌာနခွဲ ၂",
        "address": "11, Thitsar Street, Yankin Towship, Yangon",
        "address_mm": "နံပါတ် ၁၁၊ သစ္စာ လမ်း၊ ရန်ကင်းမြို့နယ်၊ ရန်ကုန်။",
        "phone": "01-658128",
        "phone_mm": "၀၁-၆၅၈၁၂၈"
    },
    {
        "id": "3",
        "name": "division-3",
        "branch": "Investment Division 3",
        "branch_mm": "ရင်းနှီးမြှုုပ်နှံမှု ဌာနခွဲ ၃",
        "address": "11, Thitsar Street, Yankin Towship, Yangon",
        "address_mm": "နံပါတ် ၁၁၊ သစ္စာ လမ်း၊ ရန်ကင်းမြို့နယ်၊ ရန်ကုန်။",
        "phone": "01-658129",
        "phone_mm": "၀၁-၆၅၈၁၂၉"
    },
    {
        "id": "4",
        "name": "division",
        "branch": "Investment Monitoring Division",
        "branch_mm": "ရင်းနှီးမြှုပ်နှံမှုကြီးကြပ်ရေးဌာနခွဲ",
        "address": "11, Thitsar Street, Yankin Towship, Yangon",
        "address_mm": "နံပါတ် ၁၁၊ သစ္စာ လမ်း၊ ရန်ကင်းမြို့နယ်၊ ရန်ကုန်။",
        "phone": "01-658133",
        "phone_mm": "၀၁-၆၅၈၁၃၃"
    },
    {
        "id": "5",
        "name": "nay pyi taw-branch",
        "branch": "Nay Pyi Taw Branch",
        "branch_mm": "နေပြည်တော်ရုံးခွဲ၊ နေပြည်တော်",
        "address": "Office No.32, Nay Pyi Taw",
        "address_mm": "ရုံးအမှတ် ၃၂ ၊ နေပြည်တော်",
        "phone": "067-406124, 067-406166",
        "phone_mm": "ဝ၆၇-၄ဝ၆၁၂၄ ၊ ဝ၆၇-၄ဝ၆၁၆၆"
    },
    {
        "id": "6",
        "name": "yangon-branch",
        "branch": "Yangon Branch Office and One Stop Services (OSS)  Branch, Yangon Region",
        "branch_mm": "ရန်ကုန်တိုင်းဒေသကြီး ဦးစီးမှူး ရုံးခွဲနှင့် တစ်နေရာ တည်း၌ တစ်စုတစ်စည်းတည်း အလုံးစုံ ဝန်ဆောင်မှု ပေးခြင်း ဆောင်ရွက်သည့်အဖွဲ့ ရုံး(OSS)၊ ရန်ကုန်မြို့။",
        "address": "Plot No.49, Myay Taing No. 85/KanBae,Sein Lae May Lane,Kabar Aye Road,Yankin Township, Yangon",
        "address_mm": "မြေကွက်အမှတ် ၄၉၊ မြေတိုင်းအမှတ် ၈၅/ ကံဘဲ့၊ စိမ်းလဲ့မေလမ်းသွယ်၊ ကမ္ဘာအေးဘုရားလမ်း၊ ရန်ကင်းမြို့နယ်။",
        "phone": "01-658263",
        "phone_mm": "၀၁-၆၅၈၂၆၃"
    },
    {
        "id": "7",
        "name": "mandalay-branch",
        "branch": "Mandalay Branch",
        "branch_mm": "မန္တလေးရုံးခွဲ၊ မန္တလေးတိုင်းဒေသကြီး",
        "address": "Corner of 26 Street & 84 Street, Notth of Zaycho Building, Third Floor, Chanayetharzan Township, Mandalay",
        "address_mm": "၂၆ x ၂၇ လမ်းကြား၊ ၈၄လမ်း၊ စျေးချိုအရှေ့ဘက်တိုက်တန်း၊ တတိယထပ်၊ ချမ်းအေးသာဇံမြို့နယ်၊ မန္တလေးတိုင်းဒေသကြီး။",
        "phone": "02-4086661",
        "phone_mm": "ဝ၂-၄၀၈၆၆၆၁"
    },
    {
        "id": "8",
        "name": "mon-branch",
        "branch": "Mawlamyaing Branch",
        "branch_mm": "မော်လမြိုင်ရုံးခွဲ၊ မွန်ပြည်နယ်",
        "address": "Compound of Mon State Government Office, Yone Gyi Street, Panpatan Ward, Mawlamyaing,Mon State",
        "address_mm": "မော်လမြိုင်မြို့နယ် စုပေါင်းရုံး၊ တတိယထပ်၊ရုံးကြီးလမ်း၊ ပန်းပဲတန်းရပ်ကွက်၊ မော်လမြိုင်မြို့၊ မွန်ပြည်နယ်။",
        "phone": "057-2023395",
        "phone_mm": "ဝ၅၇-၂၀၂၃၃၉၅"
    },
    {
        "id": "9",
        "name": "shan-branch",
        "branch": "Taunggyi Branch",
        "branch_mm": "တောင်ကြီးရုံးခွဲ၊ ရှမ်းပြည်နယ်",
        "address": "Awayyar Fire Balloon Field Street, Kyaung Gyi Su Quarter, Taunggyi, Shan State",
        "address_mm": "အဝေရာမီးပုံးပျံကွင်းလမ်း၊ ကျောင်းကြီးစုရပ်၊ တောင်ကြီးမြို့၊ ရှမ်းပြည်နယ်။",
        "phone": "081-2124293",
        "phone_mm": "ဝ၈၁-၂၁၂၄၂၉၃"
    },
    {
        "id": "10",
        "name": "kayah-branch",
        "branch": "Loikaw Branch",
        "branch_mm": "လွိုင်ကော်ရုံးခွဲ၊ ကယားပြည်နယ်",
        "address": "Compound Office of District, U Ni Street, Daw U Khu Quarter, Loikaw",
        "address_mm": "ခရိုင်စုပေါင်းရုံး၊ ဦးနီလမ်း၊ ဒေါ်ဥခူရပ်ကွက်၊ လွိုင်ကော်မြို့။",
        "phone": "083-2224184",
        "phone_mm": "၀၈၃-၂၂၂၄၁၈၄"
    },
    {
        "id": "11",
        "name": "ayeyarwady-branch",
        "branch": "Pathein Branch",
        "branch_mm": "ပုသိမ်ရုံးခွဲ၊ ဧရာဝတီတိုင်းဒေသကြီး",
        "address": "OSS office, Myat Toe Ward, Pathein",
        "address_mm": "စုပေါင်းရုံး(OSS)၊ မြက်တိုရပ်ကွက်၊ ပုသိမ်မြို့။",
        "phone": "042-29256, 042-29258",
        "phone_mm": "၀၄၂-၂၉၂၅၆"
    },
    {
        "id": "12",
        "name": "sagaing-branch",
        "branch": "Monywa Branch",
        "branch_mm": "မုံရွာရုံးခွဲ၊ စစ်ကိုင်းတိုင်းဒေသကြီး",
        "address": "Compound Office of District Administration Committee, Yone Gyee Road, Yone Gyee Quarter, Monywa",
        "address_mm": "ခရိုင်စီမံခန့်ခွဲရေးကော်မတီရုံးဝင်း၊ ရုံးကြီးလမ်း၊ ရုံးကြီးရပ်ကွက်၊ မုံရွာမြို့။",
        "phone": "071-26274",
        "phone_mm": "၀၇၁-၂၆၂၇၄"
    },
    {
        "id": "13",
        "name": "tanintharyi-branch",
        "branch": "Dawei Branch",
        "branch_mm": "ထားဝယ်ရုံးခွဲ၊ တနင်္သာရီတိုင်းဒေသကြီး",
        "address": "Combined Office, San Chi Quarter, Dawei Township",
        "address_mm": "မြို့နယ်စုပေါင်ရုံး၊ ဆန်းချီရပ်၊ ထားဝယ်မြို့။",
        "phone": "059-22230",
        "phone_mm": "၀၅၉-၂၂၂၃၀"
    },
    {
        "id": "14",
        "name": "kayin-branch",
        "branch": "Hpa-An Branch",
        "branch_mm": "ဘားအံရုံးခွဲ၊ ကရင်ပြည်နယ်",
        "address": "Kayin State Ministers’ Office, Thu Da Nu Street, Hpa-An Township",
        "address_mm": "ပြည်နယ်အစိုးရအဖွဲ့ရုံး၊ သုဓနုလမ်း၊ ဘားအံမြို့။",
        "phone": "058-22749",
        "phone_mm": "၀၅၈-၂၂၇၄၉"
    },
    {
        "id": "15",
        "name": "bago-branch",
        "branch": "Bago Branch",
        "branch_mm": "ပဲခူးရုံးခွဲ၊ ပဲခူးတိုင်းဒေသကြီး",
        "address": "Bago Regional Ministers’ Office, Taungoo Street, Yone Gyee Quarter, Bago Township",
        "address_mm": "ပဲခူးတိုင်းဒေသကြီးအစိုးရအဖွဲ့ရုံးဝင်း၊ တောင်ငူလမ်း၊ ရုံးကြီးရပ်ကွက်၊ ပဲခူးမြို့။",
        "phone": "052-2201747",
        "phone_mm": "၀၅၂-၂၂၀၁၇၄၇"
    },
    {
        "id": "16",
        "name": "magway-branch",
        "branch": "Magway Branch",
        "branch_mm": "မကွေးရုံးခွဲ၊ မကွေးတိုင်းဒေသကြီး",
        "address": "Combined Office, Pyi Taw Thar (1) Street, Pyi Taw Thar Quarter, Magway Township",
        "address_mm": "ခရိုင်စီမံခန့်ခွဲရေးကော်မတီရုံးဝင်း၊ ရုံးကြီးလမ်း၊ ရုံးကြီးရပ်ကွက်၊ မုံရွာမြို့။",
        "phone": "063-28748",
        "phone_mm": "၀၇၁-၂၆၂၇၄"
    },
    {
        "id": "17",
        "name": "kachin-branch",
        "branch": "Myitkyina Branch",
        "branch_mm": "မြစ်ကြီးနားရုံးခွဲ၊ ကချင်ပြည်နယ်",
        "address": "Government Office Compound, Yone Gyi Street, Ayar Quarter, Myitkyina Township, Kachin State",
        "address_mm": "ပြည်နယ်စိုးရအဖွဲ့ရုံး၊ ရုံးကြီးလမ်း၊ ဧရာရပ်ကွက်၊ မြစ်ကြီးနားမြို့၊ ကချင်ပြည်နယ်။",
        "phone": "074-2524201",
        "phone_mm": "၀၇၄-၂၅၂၄၂၀၁"
    },
    {
        "id": "18",
        "name": "rakhine-branch",
        "branch": "Sittwe Branch",
        "branch_mm": "စစ်တွေရုံးခွဲ၊ ရခိုင်ပြည်နယ်",
        "address": "Government Office Compound, May Yu Street, Ball Lone Kwin Quarter, Sittwe Township, Rakhine State",
        "address_mm": "ပြည်နယ်အစိုးရအဖွဲ့ရုံး ဝင်း၊ မေယုလမ်း၊ ဘောလုံးကွင်း ရပ်ကွက်၊ စစ်တွေမြို့၊ ရခိုင်ပြည်နယ်။",
        "phone": "043-2024528",
        "phone_mm": "၀၄၃-၂၀၂၄၅၂၈"
    },
    {
        "id": "19",
        "name": "chin-branch",
        "branch": "Hakha Branch",
        "branch_mm": "ဟားခါးရုံးခွဲ၊ ချင်းပြည်နယ်",
        "address": "Compound Office, Zay Thit Quarter, Hahka Township, Chin State",
        "address_mm": "ခရိုင်စုပေါင်းရုံး၊ စျေးသစ်ရပ်ကွက်၊ ဟားခါးမြို့၊ ချင်းပြည်နယ်။",
        "phone": "070-21323",
        "phone_mm": "၀၇၀-၂၁၃၂၃"
    }
]